{
  "urn" : "local:stefano.balbi:im.alice.portugal:Portugal_forest_timber_current_50m",
  "version" : "0.0.1",
  "adapterType" : "raster",
  "localPath" : "im.alice.portugal/resources/Portugal_forest_timber_current_50m.v0.0.1",
  "geometry" : "S2(1155,575){bbox=[-8.27821854058105 -7.594177443874591 40.8112312860917 41.0699274231635],proj=EPSG:4326}",
  "projectName" : "im.alice.portugal",
  "localName" : "Portugal_forest_timber_current_50m.tiff",
  "type" : "NUMBER",
  "resourceTimestamp" : 1618335488595,
  "metadata" : { },
  "parameters" : {
    "transform" : ""
  },
  "localPaths" : "im.alice.portugal/resources/Portugal_forest_timber_current_50m.v0.0.1/Portugal_forest_timber_current_50m.tiff",
  "history" : [ ],
  "notifications" : [ ],
  "attributes" : [ ],
  "spatialExtent" : {
    "east" : -7.594177443874591,
    "west" : -8.27821854058105,
    "north" : 41.0699274231635,
    "south" : 40.8112312860917,
    "gridResolution" : null,
    "gridUnit" : null
  },
  "dependencies" : null,
  "outputs" : null,
  "categorizables" : [ ],
  "exportFormats" : {
    "zip" : "GeoTiff"
  }
}