{
  "urn" : "local:stefano.balbi:im.alice.portugal:current_fre3",
  "version" : "0.0.1",
  "adapterType" : "raster",
  "localPath" : "im.alice.portugal/resources/current_fre3.v0.0.1",
  "geometry" : "S2(1485,658){bbox=[-8.269062639951246 -7.601759472500033 40.79909472756048 41.0947751882897],proj=EPSG:4326}",
  "projectName" : "im.alice.portugal",
  "localName" : "current_fre3.tif",
  "type" : "NUMBER",
  "resourceTimestamp" : 1614078072557,
  "metadata" : { },
  "parameters" : {
    "nodata" : "-3.4028234663852886E38"
  },
  "localPaths" : "im.alice.portugal/resources/current_fre3.v0.0.1/current_fre3.tif",
  "history" : [ ],
  "notifications" : [ ],
  "attributes" : [ ],
  "spatialExtent" : {
    "east" : -7.601759472500033,
    "west" : -8.269062639951246,
    "north" : 41.0947751882897,
    "south" : 40.79909472756048,
    "gridResolution" : null,
    "gridUnit" : null
  },
  "dependencies" : null,
  "outputs" : null,
  "exportFormats" : {
    "tiff" : "GeoTiff"
  }
}