{
  "urn" : "local:amarquez:im.alice.portugal:portugal_futureBGIN_gepcum",
  "version" : "0.0.1",
  "adapterType" : "raster",
  "localPath" : "im.alice.portugal/resources/portugal_futureBGIN_gepcum.v0.0.1",
  "geometry" : "S2(1485,657){bbox=[-8.269062639951246 -7.601759472500033 40.79909472756048 41.094325825887374],proj=EPSG:4326}",
  "projectName" : "im.alice.portugal",
  "localName" : "portugal_futureBGIN_gepcum.tif",
  "type" : "NUMBER",
  "resourceTimestamp" : 1614846153896,
  "metadata" : { },
  "parameters" : {
    "transform" : "",
    "nodata" : "-1.7976931348623157E308"
  },
  "localPaths" : [ "im.alice.portugal/resources/portugal_futureBGIN_gepcum.v0.0.1/portugal_futureBGIN_gepcum.tif.ovr", "im.alice.portugal/resources/portugal_futureBGIN_gepcum.v0.0.1/portugal_futureBGIN_gepcum.tif.aux.xml", "im.alice.portugal/resources/portugal_futureBGIN_gepcum.v0.0.1/portugal_futureBGIN_gepcum.tif", "im.alice.portugal/resources/portugal_futureBGIN_gepcum.v0.0.1/portugal_futureBGIN_gepcum.tfw" ],
  "history" : [ ],
  "notifications" : [ ],
  "attributes" : [ ],
  "spatialExtent" : {
    "east" : -7.601759472500033,
    "west" : -8.269062639951246,
    "north" : 41.094325825887374,
    "south" : 40.79909472756048,
    "gridResolution" : null,
    "gridUnit" : null
  },
  "dependencies" : null,
  "outputs" : null,
  "categorizables" : [ ],
  "exportFormats" : {
    "tiff" : "GeoTiff"
  }
}