{
  "urn" : "local:amarquez:im.alice.portugal:pt_LC_futureBAU_50m",
  "version" : "0.0.1",
  "adapterType" : "raster",
  "localPath" : "im.alice.portugal/resources/pt_LC_futureBAU_50m.v0.0.1",
  "geometry" : "S2(1460,605){bbox=[-8.314033608551055 -7.556550032847001 40.783088237241934 41.09697697922889],proj=EPSG:4326}",
  "projectName" : "im.alice.portugal",
  "localName" : "pt_LC_futureBAU_50m.tif",
  "type" : "NUMBER",
  "resourceTimestamp" : 1614268851199,
  "metadata" : { },
  "parameters" : {
    "transform" : "",
    "nodata" : "0.0"
  },
  "localPaths" : [ "im.alice.portugal/resources/pt_LC_futureBAU_50m.v0.0.1/pt_LC_futureBAU_50m.tfw", "im.alice.portugal/resources/pt_LC_futureBAU_50m.v0.0.1/pt_LC_futureBAU_50m.tif", "im.alice.portugal/resources/pt_LC_futureBAU_50m.v0.0.1/pt_LC_futureBAU_50m.tif.ovr", "im.alice.portugal/resources/pt_LC_futureBAU_50m.v0.0.1/pt_LC_futureBAU_50m.tif.aux.xml" ],
  "history" : [ ],
  "notifications" : [ ],
  "attributes" : [ ],
  "spatialExtent" : {
    "east" : -7.556550032847001,
    "west" : -8.314033608551055,
    "north" : 41.09697697922889,
    "south" : 40.783088237241934,
    "gridResolution" : null,
    "gridUnit" : null
  },
  "dependencies" : null,
  "outputs" : null,
  "categorizables" : [ ],
  "exportFormats" : {
    "tiff" : "GeoTiff"
  }
}