{
  "urn" : "local:amarquez:im.alice.portugal:portugal_mean_temperature_2010_2012",
  "version" : "0.0.1",
  "adapterType" : "wcs",
  "localPath" : "im.alice.portugal/resources/portugal_mean_temperature_2010_2012.v0.0.1",
  "geometry" : "t1{tend=1356912000000,tstart=1262304000000,ttype=physical}S2(74,30){bbox=[-8.3 -7.55 40.79 41.1],proj=EPSG:4326}",
  "projectName" : "im.alice.portugal",
  "localName" : "portugal_mean_temperature_2010_2012",
  "type" : "NUMBER",
  "resourceTimestamp" : 1601309606540,
  "metadata" : {
    "im:keywords" : "",
    "dc:comment" : "",
    "im:notes" : "",
    "dc:title" : "",
    "dc:url" : "",
    "dc:creator" : "",
    "im:thematic-area" : "",
    "dc:originator" : "",
    "im:geographic-area" : "",
    "dc:source" : ""
  },
  "parameters" : {
    "wcsIdentifier" : "im-alice-spain__portugal_mean_temperature_2010_2012",
    "serviceUrl" : "https://integratedmodelling.org/dev-geoserver/ows/",
    "band" : "0",
    "nodata" : "-3.4E38",
    "wcsVersion" : "2.0.1"
  },
  "localPaths" : [ ],
  "history" : [ ],
  "notifications" : [ ],
  "attributes" : [ ],
  "spatialExtent" : {
    "east" : -7.55,
    "west" : -8.3,
    "north" : 41.1,
    "south" : 40.79,
    "gridResolution" : null,
    "gridUnit" : null
  },
  "dependencies" : null,
  "outputs" : null,
  "exportFormats" : { }
}