{
  "urn" : "local:amarquez:im.alice.portugal:PT_prec_annual_accum_CNRMCLM85_5045_2050",
  "version" : "0.0.1",
  "adapterType" : "raster",
  "localPath" : "im.alice.portugal/resources/PT_prec_annual_accum_CNRMCLM85_5045_2050.v0.0.1",
  "geometry" : "S2(76,31){bbox=[-8.315000000000001 -7.555 40.794999999999995 41.105],proj=EPSG:4326}",
  "projectName" : "im.alice.portugal",
  "localName" : "PT_prec_annual_accum_CNRMCLM85_5045_2050.tif",
  "type" : "NUMBER",
  "resourceTimestamp" : 1614269796246,
  "metadata" : { },
  "parameters" : {
    "transform" : "",
    "nodata" : "-3.4E38"
  },
  "localPaths" : "im.alice.portugal/resources/PT_prec_annual_accum_CNRMCLM85_5045_2050.v0.0.1/PT_prec_annual_accum_CNRMCLM85_5045_2050.tif",
  "history" : [ ],
  "notifications" : [ ],
  "attributes" : [ ],
  "spatialExtent" : {
    "east" : -7.555,
    "west" : -8.315000000000001,
    "north" : 41.105,
    "south" : 40.794999999999995,
    "gridResolution" : null,
    "gridUnit" : null
  },
  "dependencies" : null,
  "outputs" : null,
  "categorizables" : [ ],
  "exportFormats" : {
    "tiff" : "GeoTiff"
  }
}