@relation minimally_sensitive_non_insect_proportion_macro_invertebrate_individual_count_of_reach_instances

@attribute minimally_sensitive_non_insect_proportion_macro_invertebrate_individual_count_of_reach numeric
@attribute nitrate_mass_to_water_volume_ratio numeric
@attribute solid_suspension_mass_to_water_volume_ratio numeric
@attribute water_temperature_during_summer numeric
@attribute riparian_broadleaf_forest_proportion_area_of_watershed numeric

@data
7.142857,1.67,2,14.66,0
43.544858,3.31,52.4,15.4,0.117189
24.080268,1.83,19,14.03,0.63964
37.980769,2.91,0,14.02,0.01
4.145078,1.63,6,11.08,0.01
75,1.16,5,12.54,0.01
51.941748,0.95,24.58,13.86,0.132075
10.526316,1.54,25.56,13.38,0.25281
54.901961,1.27,43.27,10.38,0.770829
42.682927,0.85,5,14.34,0.01
25,0.42,5,11.49,0.816665
14.754098,0.84,1,20,0.333335
19.648094,0.84,4,21,0.01
0,0.76,2,8.41,0.01
75,1.56,5,8.38,0.01
61.764706,0.67,10.6,11.86,0.99
24.299065,1.5,5.2,15.87,0.752133
12.121212,1.6,40,14.83,0.55
31.325301,0.8,8.6,16.14,0.42
18.75,0.62,15.6,14.24,0.796876
52.192982,0.2,23.4,12.25,0.99
54.385965,1.57,54.4,13.25,0.43
45.895522,0.85,18.4,13.85,0.223684
5.729167,1.31,33.8,14.94,0.99
39.285714,1.45,7.4,15.85,0.34
70.3125,0.45,19,14.13,0.79
5.691057,1,18.2,14.12,0.52
49.253731,0.87,27.6,13.71,0.618
16.504854,0.24,3.4,16.7,0.109
0,0.15,3.2,12.15,0
16.860465,0,22.4,14.39,0
15,1.52,35.8,15.13,0.686275
17.977528,1.59,31.8,13.19,0.26
67.394696,0.14,8.6,12.29,0
42.105263,0.67,11.6,13.93,0.736844
43.103448,0.71,46.2,14.87,0.343282
50,1.77,36.2,16.4,0.214951
50.867052,2.62,75,15.5,0.688797
27.411168,1.67,29.6,13.46,0.575759
37.362637,1.16,16.4,12.68,0.589929
2.095808,1.32,44.89,16.23,0.24
24.590164,1.41,50.59,14.88,0.27
1.5625,1.32,43.56,14.72,0.3
28.301887,1.23,37.56,14.62,0.14
51.342282,1.86,51.56,17,0.71
57.477679,2.07,48.89,16.66,0
23.322684,2.69,46.4,18.5,0.09
14.975042,1.94,47.4,16.46,0.1
32.86119,2.2,55.2,13.66,0.1
55.172414,2.41,64.8,13.18,0.1
15.769231,1.51,41.33,13.38,0.465406
6.680162,1.44,39.33,12.6,0.280301
18.700114,0.92,32,9.32,0
21.961185,0.72,32.89,9.06,0
4.587156,1.54,45.2,13.44,0.590361
42.076503,1.97,2,19.58,0.322
32.783019,1.36,6,16.64,0.474
3.590664,0.76,5,15.56,0.435
54.435484,0.97,4,23,0.508
16.582915,1.45,3,16.16,0.477
18.807339,1.61,3,16.24,0.138
74.609929,0.55,1,16.47,0.322
25.407166,0.52,4,17.25,0.474
5.882353,0.47,6,15.03,0.435
59.689922,0.46,3,18.9,0.508
6.25,0.67,3,15.99,0.477
35.294118,0.73,4,16.42,0.138
56.289979,2.03,7,17.11,0.322
29.315068,1.67,4,15.97,0.474
36.577181,1.09,4,14.68,0.435
75,0.74,6,18.42,0.508
17.241379,1.45,2,16.1,0.477
62.773723,1.96,2,17.11,0.138
48.235294,1.99,2,17.01,0.322
22.758621,0.84,2,5,0.01
21.863118,1.15,5,14.99,0.435
66.519824,1.04,4,18.87,0.508
1.731602,1.71,4,15.49,0.477
59.036145,1.86,1,15.59,0.138
47.269625,0.84,2,18,0.01
5.952381,0.84,2,16,0.01
34.65704,0.84,7,13,0
58.139535,0.84,3,5,0.01
39.375,0.84,1,14,0.01
75,0.84,7,12,0.01
9.803922,0.84,4,11,0.01
3.889789,0.84,5,20,0.01
75,0.84,3,18,0.01
45.945946,0.84,2,13,0.01
7.142857,0.84,6,5,0.01
2.424242,0.84,6,6,0.01
54.166667,0.84,3,20,0.01
46.292585,0.84,5,8,0.01
22.093023,0.84,2,5,0.01
34.705882,0.84,4,5,0
43.75,0.84,4,9,0.01
20.512821,0.84,6,5,0.01
75,0.84,3,5,0.01
7.027027,0.84,5,13,0.01
74.153846,0.84,3,21,0.01
75,0.84,6,20,0.01
6,0.84,5,7,0.01
22.660099,0.84,2,7,0.01
3.645833,0.84,6,13,0.01
37.731481,0.84,5,18,0.01
75,0.64,2,9.01,0.132075
21.290323,1,6,7,0.25281
27.654321,1.15,4,12,0
59.52381,0,2,10.65,0.75
25.906736,0.75,1,10.81,0.96581
75,2.7,3,13.24,0
62.893082,1.57,2,9.63,0
35.888502,1.86,4,11.22,0.63964
75,1.26,2,8.24,0.648934
48.360656,0.44,5,5,0.816665
34.177215,0.44,5,5,0.333335
12.977099,0,1,8.53,0.661974
72.782565,0.87,3,12,0.99
7.142857,1.67,3,14.66,0
24.080268,0.84,2,21,0.01
37.980769,2.91,4,14.02,0
4.145078,1.63,6,11.08,0
75,1.16,3,12.54,0.75
51.941748,0.84,3,11,0.01
10.526316,0.84,6,17,0.796876
42.682927,0.85,4,14.34,0.96581
25,0.42,7,11.49,0.816665
14.754098,0.52,5,11.81,0.333335
19.648094,0.84,5,10,0.01
0,0.76,6,8.41,0.66
75,1.56,3,8.38,0.65
38.888889,2.16,2,14.26,0
7.619048,1.21,6,15.03,0.63964
13.103448,1.12,4,14.69,0
43.835616,0.65,3,12.9,0.75
30,0.82,4,11.02,0.132075
30.263158,0.42,4,12.52,0.816665
38.582677,0.92,4,12.96,0.25281
6.741573,0.38,5,11.42,0.333335
52.403846,0.91,4,8.79,0.648934
6.374502,0.52,5,8.6,0.661974
8.673469,1.16,2,11.75,0
25.91133,0.6,6,10.01,0.99
5.194805,0.6,4,14.28,0.96581
46.666667,1.27,3,14.01,0
8.695652,0.84,7,14.16,0.63964
16.82243,0.64,1,14.27,0
41.935484,0.55,5,12.65,0.75
29.357798,0.33,5,13.86,0.132075
34.736842,0.33,1,12.24,0.816665
14.705882,0.46,1,12.14,0.25281
1.06383,0.32,2,11.31,0.333335
54.201681,0.73,3,8.57,0.648934
0,0.32,1,8.54,0.661974
28.828829,0.73,3,11.35,0
18.994413,0.44,6,9.91,0.99
1.948052,0.44,2,13.92,0.96581
21.538462,3.53,3,13.23,0
6.666667,1.99,2,12.11,0.63964
25.358852,1.32,3,12.97,0
75,1.19,3,12.42,0.75
13.571429,0.51,1,14.34,0.132075
38.461538,0.6,6,13.02,0.816665
35.087719,1.12,4,12.96,0.25281
17.1875,0.75,6,11.25,0.333335
42.268041,1.71,5,9.34,0.648934
5.633803,1.29,2,9.14,0.661974
0,1.66,6,10.26,0
21.153846,0.97,4,9.86,0.99
16.41791,0.78,6,12.94,0.96581
32.786885,3.18,6,13.83,0
0.373134,1.65,2,13.49,0.63964
35.526316,1.36,7,14.09,0
55.555556,1.11,3,12.84,0.75
66.145833,0.86,2,13.69,0.132075
71.052632,0.68,3,9.66,0.816665
13.333333,1.31,4,11.96,0.25281
24.038462,0.66,4,11.44,0.333335
30.656934,1.46,1,8.69,0.648934
14.285714,0.89,2,8.31,0.661974
11.643836,1.51,3,11.02,0
13.157895,0.65,1,9.87,0.99
53.623188,0.75,2,13.77,0.96581
67.005202,1.19,3,15.954273,0
75,0.34,5,14.456998,0
63.731656,0.17,4,11.85715,0.325
50.381679,1.32,4,11.97841,0.276
31.278539,0.01,6,13.057037,0.031
28.108108,0.37,1,12.374734,0.16
46.613546,2.49,5,15.508835,0.377
75,0.28,5,15.257364,0.564
32.420091,0.3,6,16.777532,0.439
0.758114,15,4,14.816732,0.882
54.085603,1,5,16.173788,0.505
39.672131,0.23,1,12.478926,0.231
51.344743,1.23,6,16.572544,0.125
68.869936,1.74,6,15.458425,0.282
49.250936,1.91,5,18.367193,0.382
14.006515,0.46,6,11.854301,0.645
62.807882,0.63,4,15.191341,0.269
74.336283,1.61,1,7,0.265
46.818182,1.61,7,15.673504,0.235
7.533995,3.96,0,13.022529,0.341
26.224784,0.42,1,13.391676,0
7.758621,0.34,2,13.328293,0.325
17.538462,1.13,4,9.707156,0.276
5.99711,0.88,7,12.254559,0.031
8.292683,0.4,4,11.946445,0.16
70.72,1.49,7,16.428366,0.377
38.396624,0.22,2,18,0.564
42.160279,0.86,4,18.942291,0.439
75,6.24,2,16.263194,0.882
3.738318,1.55,4,5,0.505
51.194539,1.22,1,10.657112,0.231
52.718676,0.9,5,17.039108,0.125
75,1.38,5,16.764563,0.282
75,1.69,1,18.565021,0.382
2.764977,0.67,7,12.676148,0.645
7.2,0.46,5,16.766077,0.269
9.275362,1,2,11.778279,0.265
17.102616,0.68,7,17.086774,0.235
75,3.36,6,13.536783,0.341
